<svg xmlns="http://www.w3.org/2000/svg" width="24" height="24" viewBox="0 0 24 24" fill="none" stroke="White"
     stroke-width="2" stroke-linecap="round" stroke-linejoin="round"
     class="icon icon-tabler icons-tabler-outline icon-tabler-table-import">
    <path stroke="none" d="M0 0h24v24H0z" fill="none"/>
    <path d="M12 21h-7a2 2 0 0 1 -2 -2v-14a2 2 0 0 1 2 -2h14a2 2 0 0 1 2 2v8"/>
    <path d="M3 10h18"/>
    <path d="M10 3v18"/>
    <path d="M19 22v-6"/>
    <path d="M22 19l-3 -3l-3 3"/>
</svg>