<svg xmlns="http://www.w3.org/2000/svg" width="24" height="24" viewBox="0 0 24 24" fill="none" stroke="White"
     stroke-width="2" stroke-linecap="round" stroke-linejoin="round"
     class="icon icon-tabler icons-tabler-outline icon-tabler-transfer">
    <path stroke="none" d="M0 0h24v24H0z" fill="none"/>
    <path d="M20 10h-16l5.5 -6"/>
    <path d="M4 14h16l-5.5 6"/>
</svg>